02:21:23.458970 Log continuation - Log started 2021-03-13T17:55:15.711222000Z
02:21:23.475836 GUI: UIMediumEnumerator: Medium-enumeration finished!
02:21:23.843296 GUI: UIMediumEnumerator: Medium-enumeration finished!
02:25:19.832063 GUI: UIMediumEnumerator: Medium-enumeration finished!
02:25:20.573389 GUI: UIMediumEnumerator: Medium-enumeration finished!
02:25:55.132483 GUI: UIMediumEnumerator: Medium-enumeration finished!
02:29:41.684146 GUI: UIMediumEnumerator: Medium-enumeration finished!
