05:42:19.054057 Log continuation - Log started 2021-03-13T20:27:36.170675000Z
05:43:00.301973 GUI: UIMediumEnumerator: Medium-enumeration finished!
05:43:07.105977 GUI: UIMediumEnumerator: Medium-enumeration finished!
05:43:07.141169 GUI: UIMediumEnumerator: Medium-enumeration finished!
05:47:43.963308 GUI: UIMediumEnumerator: Medium-enumeration finished!
07:07:08.279447 GUI: UIMediumEnumerator: Medium-enumeration finished!
07:07:08.279472 Log rotated - Log started 2021-03-13T20:27:36.170675000Z
