00:00:00.463634 VirtualBox GUI VM Selector Window 6.1.18 r142142 linux.amd64 (Feb 16 2021 07:45:49) release log
00:00:00.463638 Log opened 2021-03-13T17:49:36.365675000Z
00:00:00.463639 Build Type: release
00:00:00.463643 OS Product: Linux
00:00:00.463645 OS Release: 5.11.6-arch1-1
00:00:00.463647 OS Version: #1 SMP PREEMPT Thu, 11 Mar 2021 13:48:23 +0000
00:00:00.463673 DMI Product Name: MS-7978
00:00:00.463686 DMI Product Version: 2.0
00:00:00.463697 Firmware type: BIOS
00:00:00.463756 Host RAM: 15947MB (15.5GB) total, 14659MB (14.3GB) available
00:00:00.463767 Executable: /usr/lib/virtualbox/VirtualBox
00:00:00.463768 Process ID: 1386
00:00:00.463768 Package type: LINUX_64BITS_GENERIC (OSE)
00:00:00.463800 Qt version: 5.15.2
00:00:00.493868 GUI: UIMediumEnumerator: Medium-enumeration started...
00:00:00.871886 GUI: UIDesktopWidgetWatchdog::sltHandleHostScreenAvailableGeometryCalculated: Screen 0 work area is actually resized to: 0x0 x 1920x1046
00:00:00.875702 GUI: UIDesktopWidgetWatchdog::sltHandleHostScreenAvailableGeometryCalculated: Screen 1 work area is actually resized to: 1920x0 x 1920x1080
00:00:00.886869 GUI: UIMediumEnumerator: Medium-enumeration finished!
00:00:30.683545 ERROR [COM]: aRC=NS_ERROR_UNEXPECTED (0x8000ffff) aIID={c0447716-ff5a-4795-b57a-ecd5fffa18a4} aComponent={SessionWrap} aText={The session is not locked (session state: Unlocked)}, preserve=false aResultDetail=0
