00:00:00.190001 VirtualBox GUI VM Selector Window 6.1.18 r142142 linux.amd64 (Feb 16 2021 07:45:49) release log
00:00:00.190003 Log opened 2021-03-13T17:52:48.393749000Z
00:00:00.190003 Build Type: release
00:00:00.190005 OS Product: Linux
00:00:00.190005 OS Release: 5.11.6-arch1-1
00:00:00.190006 OS Version: #1 SMP PREEMPT Thu, 11 Mar 2021 13:48:23 +0000
00:00:00.190020 DMI Product Name: MS-7978
00:00:00.190025 DMI Product Version: 2.0
00:00:00.190030 Firmware type: BIOS
00:00:00.190056 Host RAM: 15947MB (15.5GB) total, 14609MB (14.2GB) available
00:00:00.190058 Executable: /usr/lib/virtualbox/VirtualBox
00:00:00.190058 Process ID: 4022
00:00:00.190059 Package type: LINUX_64BITS_GENERIC (OSE)
00:00:00.190075 Qt version: 5.15.2
00:00:00.280163 GUI: UIMediumEnumerator: Medium-enumeration started...
00:00:00.659642 GUI: UIDesktopWidgetWatchdog::sltHandleHostScreenAvailableGeometryCalculated: Screen 0 work area is actually resized to: 0x0 x 1920x1046
00:00:00.664037 GUI: UIDesktopWidgetWatchdog::sltHandleHostScreenAvailableGeometryCalculated: Screen 1 work area is actually resized to: 1920x0 x 1920x1080
00:00:00.742470 GUI: UIMediumEnumerator: Medium-enumeration finished!
00:00:15.134221 ERROR [COM]: aRC=NS_ERROR_UNEXPECTED (0x8000ffff) aIID={c0447716-ff5a-4795-b57a-ecd5fffa18a4} aComponent={SessionWrap} aText={The session is not locked (session state: Unlocked)}, preserve=false aResultDetail=0
