00:00:00.359896 VirtualBox GUI VM Selector Window 6.1.18 r142142 linux.amd64 (Feb 16 2021 07:45:49) release log
00:00:00.359898 Log opened 2021-03-13T17:35:18.238487000Z
00:00:00.359898 Build Type: release
00:00:00.359900 OS Product: Linux
00:00:00.359901 OS Release: 5.11.5-arch1-1
00:00:00.359901 OS Version: #1 SMP PREEMPT Tue, 09 Mar 2021 18:56:28 +0000
00:00:00.359916 DMI Product Name: MS-7978
00:00:00.359922 DMI Product Version: 2.0
00:00:00.359927 Firmware type: BIOS
00:00:00.359953 Host RAM: 15947MB (15.5GB) total, 11227MB (10.9GB) available
00:00:00.359955 Executable: /usr/lib/virtualbox/VirtualBox
00:00:00.359956 Process ID: 185197
00:00:00.359956 Package type: LINUX_64BITS_GENERIC (OSE)
00:00:00.359973 Qt version: 5.15.2
00:00:00.369128 GUI: UIMediumEnumerator: Medium-enumeration started...
00:00:00.369146 GUI: UIMediumEnumerator: Medium-enumeration finished!
00:00:00.748044 GUI: UIDesktopWidgetWatchdog::sltHandleHostScreenAvailableGeometryCalculated: Screen 0 work area is actually resized to: 0x0 x 1920x1046
00:00:00.752112 GUI: UIDesktopWidgetWatchdog::sltHandleHostScreenAvailableGeometryCalculated: Screen 1 work area is actually resized to: 1920x0 x 1920x1080
00:05:18.388101 GUI: UIMediumEnumerator: Medium with key={{6847db79-104d-483e-896e-91ef1209ad7a}} created
00:05:18.687312 GUI: UIMediumEnumerator: Medium-enumeration finished!
00:06:51.468992 GUI: UIMediumEnumerator: Medium with key={{5ec4c9b5-9ec3-4041-8bd9-968ada24e0cf}} created
00:06:51.489770 GUI: UIMediumEnumerator: Medium-enumeration finished!
00:07:01.317815 GUI: UIMediumEnumerator: Medium-enumeration finished!
00:07:01.343129 GUI: UIMediumEnumerator: Medium-enumeration finished!
00:07:22.676211 ERROR [COM]: aRC=NS_ERROR_UNEXPECTED (0x8000ffff) aIID={c0447716-ff5a-4795-b57a-ecd5fffa18a4} aComponent={SessionWrap} aText={The session is not locked (session state: Unlocked)}, preserve=false aResultDetail=0
