00:00:00.516251 VirtualBox GUI VM Selector Window 6.1.18 r142142 linux.amd64 (Feb 16 2021 07:45:49) release log
00:00:00.516253 Log opened 2021-03-13T17:55:15.711222000Z
00:00:00.516254 Build Type: release
00:00:00.516256 OS Product: Linux
00:00:00.516257 OS Release: 5.11.6-arch1-1
00:00:00.516259 OS Version: #1 SMP PREEMPT Thu, 11 Mar 2021 13:48:23 +0000
00:00:00.516278 DMI Product Name: MS-7978
00:00:00.516287 DMI Product Version: 2.0
00:00:00.516294 Firmware type: BIOS
00:00:00.516334 Host RAM: 15947MB (15.5GB) total, 14771MB (14.4GB) available
00:00:00.516338 Executable: /usr/lib/virtualbox/VirtualBox
00:00:00.516339 Process ID: 1425
00:00:00.516339 Package type: LINUX_64BITS_GENERIC (OSE)
00:00:00.516361 Qt version: 5.15.2
00:00:00.530847 GUI: UIMediumEnumerator: Medium-enumeration started...
00:00:00.897865 GUI: UIDesktopWidgetWatchdog::sltHandleHostScreenAvailableGeometryCalculated: Screen 0 work area is actually resized to: 0x0 x 1920x1046
00:00:00.901703 GUI: UIDesktopWidgetWatchdog::sltHandleHostScreenAvailableGeometryCalculated: Screen 1 work area is actually resized to: 1920x0 x 1920x1080
00:00:00.911917 GUI: UIMediumEnumerator: Medium-enumeration finished!
00:04:44.074649 GUI: UIMediumEnumerator: Medium-enumeration finished!
00:04:57.737877 GUI: UIMediumEnumerator: Medium-enumeration finished!
00:04:57.767966 GUI: UIMediumEnumerator: Medium-enumeration finished!
02:21:23.458614 GUI: UIMediumEnumerator: Medium-enumeration finished!
02:21:23.458660 Log rotated - Log started 2021-03-13T17:55:15.711222000Z
