03:17:00.440428 Log continuation - Log started 2021-03-13T20:27:36.170675000Z
03:17:39.192818 GUI: UIMediumEnumerator: Medium with key={{2b476c60-26b7-4696-87a0-109551edc8d0}} created
03:17:39.450985 GUI: UIMediumEnumerator: Medium-enumeration finished!
03:25:30.300415 GUI: UIMediumEnumerator: Medium-enumeration finished!
03:25:30.375321 GUI: UIMediumEnumerator: Medium-enumeration finished!
03:26:27.317506 GUI: UIMediumEnumerator: Medium-enumeration finished!
03:28:47.742955 GUI: UIMediumEnumerator: Medium-enumeration finished!
03:28:49.603824 GUI: UIMediumEnumerator: Medium-enumeration finished!
03:28:49.639779 GUI: UIMediumEnumerator: Medium-enumeration finished!
03:29:10.764253 GUI: UIMediumEnumerator: Medium-enumeration finished!
03:29:10.886913 GUI: UIMediumEnumerator: Medium-enumeration finished!
03:29:45.522150 GUI: UIMediumEnumerator: Medium-enumeration finished!
03:30:04.066325 GUI: UIMediumEnumerator: Medium-enumeration finished!
05:42:19.053903 GUI: UIMediumEnumerator: Medium-enumeration finished!
05:42:19.053922 Log rotated - Log started 2021-03-13T20:27:36.170675000Z
