00:00:00.255579 VirtualBox GUI VM Selector Window 6.1.18 r142142 linux.amd64 (Feb 16 2021 07:45:49) release log
00:00:00.255583 Log opened 2021-03-13T20:27:36.170675000Z
00:00:00.255584 Build Type: release
00:00:00.255587 OS Product: Linux
00:00:00.255590 OS Release: 5.11.6-arch1-1
00:00:00.255592 OS Version: #1 SMP PREEMPT Thu, 11 Mar 2021 13:48:23 +0000
00:00:00.255623 DMI Product Name: MS-7978
00:00:00.255638 DMI Product Version: 2.0
00:00:00.255650 Firmware type: BIOS
00:00:00.255708 Host RAM: 15947MB (15.5GB) total, 14290MB (13.9GB) available
00:00:00.255714 Executable: /usr/lib/virtualbox/VirtualBox
00:00:00.255715 Process ID: 12102
00:00:00.255716 Package type: LINUX_64BITS_GENERIC (OSE)
00:00:00.255756 Qt version: 5.15.2
00:00:00.296108 GUI: UIMediumEnumerator: Medium-enumeration started...
00:00:00.677451 GUI: UIDesktopWidgetWatchdog::sltHandleHostScreenAvailableGeometryCalculated: Screen 0 work area is actually resized to: 0x0 x 1920x1046
00:00:00.681872 GUI: UIDesktopWidgetWatchdog::sltHandleHostScreenAvailableGeometryCalculated: Screen 1 work area is actually resized to: 1920x0 x 1920x1080
00:00:00.691794 GUI: UIMediumEnumerator: Medium-enumeration finished!
00:00:22.229591 GUI: UIMediumEnumerator: Medium-enumeration finished!
00:00:22.380625 GUI: UIMediumEnumerator: Medium-enumeration finished!
00:01:23.238701 GUI: UIMediumEnumerator: Medium-enumeration finished!
00:02:52.473443 GUI: UIMediumEnumerator: Medium-enumeration finished!
00:02:55.993490 GUI: UIMediumEnumerator: Medium-enumeration finished!
00:03:08.303997 GUI: UIMediumEnumerator: Medium-enumeration finished!
00:03:40.543250 GUI: UIMediumEnumerator: Medium-enumeration finished!
00:04:04.866965 GUI: UIMediumEnumerator: Medium-enumeration finished!
00:04:04.898852 GUI: UIMediumEnumerator: Medium-enumeration finished!
03:17:00.439793 GUI: UIMediumEnumerator: Medium-enumeration finished!
03:17:00.439945 Log rotated - Log started 2021-03-13T20:27:36.170675000Z
