00:00:00.000114 main     VirtualBox XPCOM Server 6.1.18 r142142 linux.amd64 (Feb 16 2021 07:45:49) release log
00:00:00.000116 main     Log opened 2021-03-13T17:35:18.069971000Z
00:00:00.000117 main     Build Type: release
00:00:00.000118 main     OS Product: Linux
00:00:00.000119 main     OS Release: 5.11.5-arch1-1
00:00:00.000119 main     OS Version: #1 SMP PREEMPT Tue, 09 Mar 2021 18:56:28 +0000
00:00:00.000132 main     DMI Product Name: MS-7978
00:00:00.000137 main     DMI Product Version: 2.0
00:00:00.000142 main     Firmware type: BIOS
00:00:00.000164 main     Host RAM: 15947MB (15.5GB) total, 11230MB (10.9GB) available
00:00:00.000166 main     Executable: /usr/lib/virtualbox/VBoxSVC
00:00:00.000166 main     Process ID: 185230
00:00:00.000166 main     Package type: LINUX_64BITS_GENERIC (OSE)
00:00:00.001281 main     IPC socket path: /tmp/.vbox-willyb-ipc/ipcd
00:00:00.106745 nspr-2   VirtualBox: object creation starts
00:00:00.106881 nspr-2   Home directory: '/home/willyb/.config/VirtualBox'
00:00:00.108932 nspr-2   HostDnsMonitor: initializing
00:00:00.109494 nspr-2   NAT: resolv.conf: nameserver 192.168.50.1
00:00:00.109537 nspr-2   HostDnsMonitor: updating information
00:00:00.109590 nspr-2   HostDnsMonitor: old information
00:00:00.109599 nspr-2     no server entries
00:00:00.109606 nspr-2     no domain set
00:00:00.109613 nspr-2     no search string entries
00:00:00.109619 nspr-2   HostDnsMonitor: new information
00:00:00.109625 nspr-2     server 1: 192.168.50.1
00:00:00.109633 nspr-2     no domain set
00:00:00.109639 nspr-2     no search string entries
00:00:00.115132 nspr-2   Failed to open "/dev/vboxdrvu", errno=2, rc=VERR_VM_DRIVER_NOT_INSTALLED
00:00:00.115562 nspr-2   VD: VDInit finished with VINF_SUCCESS
00:00:00.115765 nspr-2   ERROR [COM]: aRC=NS_ERROR_FAILURE (0x80004005) aIID={027bc463-929c-40e8-bf16-fea557cd8e7e} aComponent={SystemPropertiesWrap} aText={Cannot determine default Guest Additions ISO location. Most likely they are not available}, preserve=false aResultDetail=0
00:00:00.117290 nspr-2   VirtualBox: object created
00:03:41.297257 nspr-2   Failed to open "/dev/vboxdrvu", errno=2, rc=VERR_VM_DRIVER_NOT_INSTALLED
00:03:41.298254 nspr-2   Failed to open "/dev/vboxdrvu", errno=2, rc=VERR_VM_DRIVER_NOT_INSTALLED
00:05:17.665385 createBase Saving settings file "/home/willyb/.config/VirtualBox/VirtualBox.xml" with version "1.12-linux"
00:05:18.291010 nspr-4   Saving settings file "/home/willyb/VirtualBox VMs/ALCI TEST/ALCI TEST.vbox" with version "1.16-linux"
00:05:18.304440 nspr-3   WARNING [COM]: aRC=NS_ERROR_FAILURE (0x80004005) aIID={16ced992-5fdc-4aba-aff5-6a39bbd7c38b} aComponent={HostWrap} aText={Could not load the Host USB Proxy service: VERR_NOT_FOUND}, preserve=true  aResultDetail=0
00:05:18.307221 nspr-4   Saving settings file "/home/willyb/VirtualBox VMs/ALCI TEST/ALCI TEST.vbox" with version "1.16-linux"
00:05:18.313950 nspr-4   Saving settings file "/home/willyb/.config/VirtualBox/VirtualBox.xml" with version "1.12-linux"
00:05:18.329698 nspr-4   Saving settings file "/home/willyb/.config/VirtualBox/VirtualBox.xml" with version "1.12-linux"
00:05:18.339324 nspr-4   Saving settings file "/home/willyb/VirtualBox VMs/ALCI TEST/ALCI TEST.vbox" with version "1.16-linux"
00:05:18.818247 nspr-4   WARNING [COM]: aRC=NS_ERROR_FAILURE (0x80004005) aIID={16ced992-5fdc-4aba-aff5-6a39bbd7c38b} aComponent={HostWrap} aText={Could not load the Host USB Proxy service: VERR_NOT_FOUND}, preserve=true  aResultDetail=0
00:05:18.868100 nspr-2   Failed to open "/dev/vboxdrvu", errno=2, rc=VERR_VM_DRIVER_NOT_INSTALLED
00:05:19.051223 nspr-2   WARNING [COM]: aRC=NS_ERROR_FAILURE (0x80004005) aIID={16ced992-5fdc-4aba-aff5-6a39bbd7c38b} aComponent={HostWrap} aText={Could not load the Host USB Proxy service: VERR_NOT_FOUND}, preserve=true  aResultDetail=0
00:05:19.051883 nspr-2   WARNING [COM]: aRC=NS_ERROR_FAILURE (0x80004005) aIID={16ced992-5fdc-4aba-aff5-6a39bbd7c38b} aComponent={HostWrap} aText={Could not load the Host USB Proxy service: VERR_NOT_FOUND}, preserve=true  aResultDetail=0
00:05:26.239623 nspr-4   Failed to open "/dev/vboxdrvu", errno=2, rc=VERR_VM_DRIVER_NOT_INSTALLED
00:05:26.426099 nspr-2   WARNING [COM]: aRC=NS_ERROR_FAILURE (0x80004005) aIID={16ced992-5fdc-4aba-aff5-6a39bbd7c38b} aComponent={HostWrap} aText={Could not load the Host USB Proxy service: VERR_NOT_FOUND}, preserve=true  aResultDetail=0
00:05:26.952973 nspr-4   Failed to open "/dev/vboxdrvu", errno=2, rc=VERR_VM_DRIVER_NOT_INSTALLED
00:05:26.953075 nspr-3   Failed to open "/dev/vboxdrvu", errno=2, rc=VERR_VM_DRIVER_NOT_INSTALLED
00:05:26.953162 nspr-4   Failed to open "/dev/vboxdrvu", errno=2, rc=VERR_VM_DRIVER_NOT_INSTALLED
00:05:26.967186 nspr-3   WARNING [COM]: aRC=NS_ERROR_FAILURE (0x80004005) aIID={16ced992-5fdc-4aba-aff5-6a39bbd7c38b} aComponent={HostWrap} aText={Could not load the Host USB Proxy service: VERR_NOT_FOUND}, preserve=true  aResultDetail=0
00:05:26.967487 nspr-4   WARNING [COM]: aRC=NS_ERROR_FAILURE (0x80004005) aIID={16ced992-5fdc-4aba-aff5-6a39bbd7c38b} aComponent={HostWrap} aText={Could not load the Host USB Proxy service: VERR_NOT_FOUND}, preserve=true  aResultDetail=0
00:05:27.157673 nspr-4   Failed to open "/dev/vboxdrvu", errno=2, rc=VERR_VM_DRIVER_NOT_INSTALLED
00:05:27.167715 nspr-4   WARNING [COM]: aRC=NS_ERROR_FAILURE (0x80004005) aIID={16ced992-5fdc-4aba-aff5-6a39bbd7c38b} aComponent={HostWrap} aText={Could not load the Host USB Proxy service: VERR_NOT_FOUND}, preserve=true  aResultDetail=0
00:05:27.168399 nspr-4   WARNING [COM]: aRC=NS_ERROR_FAILURE (0x80004005) aIID={16ced992-5fdc-4aba-aff5-6a39bbd7c38b} aComponent={HostWrap} aText={Could not load the Host USB Proxy service: VERR_NOT_FOUND}, preserve=true  aResultDetail=0
00:06:51.278860 nspr-2   Saving settings file "/home/willyb/.config/VirtualBox/VirtualBox.xml" with version "1.12-linux"
00:06:51.286045 nspr-3   Saving settings file "/home/willyb/.config/VirtualBox/VirtualBox.xml" with version "1.12-linux"
00:07:00.886998 nspr-2   ERROR [COM]: aRC=VBOX_E_OBJECT_NOT_FOUND (0x80bb0001) aIID={85632c68-b5bb-4316-a900-5eb28d3413df} aComponent={SessionMachine} aText={No storage device attached to device slot 0 on port 0 of controller 'IDE'}, preserve=false aResultDetail=0
00:07:00.887729 nspr-4   Saving settings file "/home/willyb/.config/VirtualBox/VirtualBox.xml" with version "1.12-linux"
00:07:00.981066 nspr-4   Saving settings file "/home/willyb/VirtualBox VMs/ALCI TEST/ALCI TEST.vbox" with version "1.16-linux"
00:07:00.991179 nspr-3   Saving settings file "/home/willyb/VirtualBox VMs/ALCI TEST/ALCI TEST.vbox" with version "1.16-linux"
00:07:01.164063 nspr-3   Failed to open "/dev/vboxdrvu", errno=2, rc=VERR_VM_DRIVER_NOT_INSTALLED
00:07:01.185039 nspr-2   WARNING [COM]: aRC=NS_ERROR_FAILURE (0x80004005) aIID={16ced992-5fdc-4aba-aff5-6a39bbd7c38b} aComponent={HostWrap} aText={Could not load the Host USB Proxy service: VERR_NOT_FOUND}, preserve=true  aResultDetail=0
00:07:01.186207 nspr-2   WARNING [COM]: aRC=NS_ERROR_FAILURE (0x80004005) aIID={16ced992-5fdc-4aba-aff5-6a39bbd7c38b} aComponent={HostWrap} aText={Could not load the Host USB Proxy service: VERR_NOT_FOUND}, preserve=true  aResultDetail=0
00:07:05.462756 nspr-3   Launched VM: 1677730528 pid: 186436 (0x2d844) frontend: GUI/Qt name: ALCI TEST
00:07:05.486747 nspr-3   Failed to open "/dev/vboxdrvu", errno=2, rc=VERR_VM_DRIVER_NOT_INSTALLED
00:07:05.512552 nspr-4   WARNING [COM]: aRC=NS_ERROR_FAILURE (0x80004005) aIID={16ced992-5fdc-4aba-aff5-6a39bbd7c38b} aComponent={HostWrap} aText={Could not load the Host USB Proxy service: VERR_NOT_FOUND}, preserve=true  aResultDetail=0
00:07:05.513723 nspr-4   WARNING [COM]: aRC=NS_ERROR_FAILURE (0x80004005) aIID={16ced992-5fdc-4aba-aff5-6a39bbd7c38b} aComponent={HostWrap} aText={Could not load the Host USB Proxy service: VERR_NOT_FOUND}, preserve=true  aResultDetail=0
00:07:05.962962 Watcher  ERROR [COM]: aRC=NS_ERROR_FAILURE (0x80004005) aIID={85632c68-b5bb-4316-a900-5eb28d3413df} aComponent={MachineWrap} aText={The virtual machine 'ALCI TEST' has terminated unexpectedly during startup with exit code 1 (0x1)}, preserve=false aResultDetail=0
00:07:06.515264 nspr-4   Failed to open "/dev/vboxdrvu", errno=2, rc=VERR_VM_DRIVER_NOT_INSTALLED
00:07:06.604150 nspr-3   WARNING [COM]: aRC=NS_ERROR_FAILURE (0x80004005) aIID={16ced992-5fdc-4aba-aff5-6a39bbd7c38b} aComponent={HostWrap} aText={Could not load the Host USB Proxy service: VERR_NOT_FOUND}, preserve=true  aResultDetail=0
00:07:06.604950 nspr-3   WARNING [COM]: aRC=NS_ERROR_FAILURE (0x80004005) aIID={16ced992-5fdc-4aba-aff5-6a39bbd7c38b} aComponent={HostWrap} aText={Could not load the Host USB Proxy service: VERR_NOT_FOUND}, preserve=true  aResultDetail=0
00:09:57.938112 nspr-3   Saving settings file "/home/willyb/.config/VirtualBox/VirtualBox.xml" with version "1.12-linux"
00:09:57.948343 nspr-3   Saving settings file "/home/willyb/.config/VirtualBox/VirtualBox.xml" with version "1.12-linux"
00:09:57.955627 nspr-4   Saving settings file "/home/willyb/.config/VirtualBox/VirtualBox.xml" with version "1.12-linux"
00:09:57.968941 nspr-3   Saving settings file "/home/willyb/.config/VirtualBox/VirtualBox.xml" with version "1.12-linux"
00:09:57.981094 nspr-2   Saving settings file "/home/willyb/.config/VirtualBox/VirtualBox.xml" with version "1.12-linux"
00:09:57.993565 nspr-2   Saving settings file "/home/willyb/.config/VirtualBox/VirtualBox.xml" with version "1.12-linux"
00:09:58.012066 nspr-3   Saving settings file "/home/willyb/.config/VirtualBox/VirtualBox.xml" with version "1.12-linux"
00:10:03.545632 main     VirtualBox: object deletion starts
00:10:03.545718 main     ERROR [COM]: aRC=VBOX_E_OBJECT_IN_USE (0x80bb000c) aIID={ad47ad09-787b-44ab-b343-a082a3f2dfb1} aComponent={MediumWrap} aText={Medium '/home/willyb/VirtualBox VMs/ALCI TEST/ALCI TEST.vdi' cannot be closed because it is still attached to 1 virtual machines}, preserve=false aResultDetail=0
00:10:03.546437 main     HostDnsMonitor: shutting down ...
00:10:03.564866 main     HostDnsMonitor: shut down
00:10:04.012167 Watcher  ERROR [COM]: aRC=E_ACCESSDENIED (0x80070005) aIID={d0a0163f-e254-4e5b-a1f2-011cf991c38d} aComponent={VirtualBoxWrap} aText={The object is not ready}, preserve=false aResultDetail=0
00:10:05.316952 main     VirtualBox: object deleted
