00:00:00.001152 main     VirtualBox XPCOM Server 6.1.18 r142142 linux.amd64 (Feb 16 2021 07:45:49) release log
00:00:00.001154 main     Log opened 2021-03-13T17:49:36.172108000Z
00:00:00.001154 main     Build Type: release
00:00:00.001156 main     OS Product: Linux
00:00:00.001157 main     OS Release: 5.11.6-arch1-1
00:00:00.001157 main     OS Version: #1 SMP PREEMPT Thu, 11 Mar 2021 13:48:23 +0000
00:00:00.001174 main     DMI Product Name: MS-7978
00:00:00.001179 main     DMI Product Version: 2.0
00:00:00.001185 main     Firmware type: BIOS
00:00:00.001212 main     Host RAM: 15947MB (15.5GB) total, 14662MB (14.3GB) available
00:00:00.001214 main     Executable: /usr/lib/virtualbox/VBoxSVC
00:00:00.001215 main     Process ID: 1421
00:00:00.001215 main     Package type: LINUX_64BITS_GENERIC (OSE)
00:00:00.002709 main     IPC socket path: /tmp/.vbox-willyb-ipc/ipcd
00:00:00.111355 nspr-2   VirtualBox: object creation starts
00:00:00.111446 nspr-2   Home directory: '/home/willyb/.config/VirtualBox'
00:00:00.111876 nspr-2   Loading settings file "/home/willyb/.config/VirtualBox/VirtualBox.xml" with version "1.12-linux"
00:00:00.115369 nspr-2   HostDnsMonitor: initializing
00:00:00.115655 nspr-2   NAT: resolv.conf: nameserver 192.168.50.1
00:00:00.115675 nspr-2   HostDnsMonitor: updating information
00:00:00.115694 nspr-2   HostDnsMonitor: old information
00:00:00.115699 nspr-2     no server entries
00:00:00.115704 nspr-2     no domain set
00:00:00.115708 nspr-2     no search string entries
00:00:00.115712 nspr-2   HostDnsMonitor: new information
00:00:00.115716 nspr-2     server 1: 192.168.50.1
00:00:00.115720 nspr-2     no domain set
00:00:00.115724 nspr-2     no search string entries
00:00:00.119431 nspr-2   Failed to open "/dev/vboxdrvu", errno=2, rc=VERR_VM_DRIVER_NOT_INSTALLED
00:00:00.120561 nspr-2   VD: VDInit finished with VINF_SUCCESS
00:00:00.120930 nspr-2   ERROR [COM]: aRC=NS_ERROR_FAILURE (0x80004005) aIID={027bc463-929c-40e8-bf16-fea557cd8e7e} aComponent={SystemPropertiesWrap} aText={Cannot determine default Guest Additions ISO location. Most likely they are not available}, preserve=false aResultDetail=0
00:00:00.128953 nspr-2   Loading settings file "/home/willyb/VirtualBox VMs/ALCI TEST/ALCI TEST.vbox" with version "1.16-linux"
00:00:00.130740 nspr-2   VirtualBox: object created
00:00:00.687774 nspr-2   WARNING [COM]: aRC=NS_ERROR_FAILURE (0x80004005) aIID={16ced992-5fdc-4aba-aff5-6a39bbd7c38b} aComponent={HostWrap} aText={VirtualBox is not currently allowed to access USB devices.  You can change this by adding your user to the 'vboxusers' group.  Please see the user manual for a more detailed explanation}, preserve=true  aResultDetail=0
00:00:00.725834 nspr-2   Failed to open "/dev/vboxdrvu", errno=2, rc=VERR_VM_DRIVER_NOT_INSTALLED
00:00:00.873127 nspr-2   WARNING [COM]: aRC=NS_ERROR_FAILURE (0x80004005) aIID={16ced992-5fdc-4aba-aff5-6a39bbd7c38b} aComponent={HostWrap} aText={VirtualBox is not currently allowed to access USB devices.  You can change this by adding your user to the 'vboxusers' group.  Please see the user manual for a more detailed explanation}, preserve=true  aResultDetail=0
00:00:00.873895 nspr-2   WARNING [COM]: aRC=NS_ERROR_FAILURE (0x80004005) aIID={16ced992-5fdc-4aba-aff5-6a39bbd7c38b} aComponent={HostWrap} aText={VirtualBox is not currently allowed to access USB devices.  You can change this by adding your user to the 'vboxusers' group.  Please see the user manual for a more detailed explanation}, preserve=true  aResultDetail=0
00:00:05.811458 nspr-3   Launched VM: 3355450816 pid: 1450 (0x5aa) frontend: GUI/Qt name: ALCI TEST
00:00:05.862074 nspr-4   Failed to open "/dev/vboxdrvu", errno=2, rc=VERR_VM_DRIVER_NOT_INSTALLED
00:00:05.892114 nspr-4   WARNING [COM]: aRC=NS_ERROR_FAILURE (0x80004005) aIID={16ced992-5fdc-4aba-aff5-6a39bbd7c38b} aComponent={HostWrap} aText={VirtualBox is not currently allowed to access USB devices.  You can change this by adding your user to the 'vboxusers' group.  Please see the user manual for a more detailed explanation}, preserve=true  aResultDetail=0
00:00:05.892794 nspr-4   WARNING [COM]: aRC=NS_ERROR_FAILURE (0x80004005) aIID={16ced992-5fdc-4aba-aff5-6a39bbd7c38b} aComponent={HostWrap} aText={VirtualBox is not currently allowed to access USB devices.  You can change this by adding your user to the 'vboxusers' group.  Please see the user manual for a more detailed explanation}, preserve=true  aResultDetail=0
00:00:06.312826 Watcher  ERROR [COM]: aRC=NS_ERROR_FAILURE (0x80004005) aIID={85632c68-b5bb-4316-a900-5eb28d3413df} aComponent={MachineWrap} aText={The virtual machine 'ALCI TEST' has terminated unexpectedly during startup with exit code 1 (0x1)}, preserve=false aResultDetail=0
00:00:06.930197 nspr-3   Failed to open "/dev/vboxdrvu", errno=2, rc=VERR_VM_DRIVER_NOT_INSTALLED
00:00:07.057086 nspr-3   WARNING [COM]: aRC=NS_ERROR_FAILURE (0x80004005) aIID={16ced992-5fdc-4aba-aff5-6a39bbd7c38b} aComponent={HostWrap} aText={VirtualBox is not currently allowed to access USB devices.  You can change this by adding your user to the 'vboxusers' group.  Please see the user manual for a more detailed explanation}, preserve=true  aResultDetail=0
00:00:07.058207 nspr-3   WARNING [COM]: aRC=NS_ERROR_FAILURE (0x80004005) aIID={16ced992-5fdc-4aba-aff5-6a39bbd7c38b} aComponent={HostWrap} aText={VirtualBox is not currently allowed to access USB devices.  You can change this by adding your user to the 'vboxusers' group.  Please see the user manual for a more detailed explanation}, preserve=true  aResultDetail=0
00:03:08.546186 nspr-3   Saving settings file "/home/willyb/.config/VirtualBox/VirtualBox.xml" with version "1.12-linux"
00:03:08.557659 nspr-4   Saving settings file "/home/willyb/.config/VirtualBox/VirtualBox.xml" with version "1.12-linux"
00:03:12.787467 nspr-3   WARNING [COM]: aRC=NS_ERROR_FAILURE (0x80004005) aIID={16ced992-5fdc-4aba-aff5-6a39bbd7c38b} aComponent={HostWrap} aText={VirtualBox is not currently allowed to access USB devices.  You can change this by adding your user to the 'vboxusers' group.  Please see the user manual for a more detailed explanation}, preserve=true  aResultDetail=0
00:03:12.822422 nspr-2   Failed to open "/dev/vboxdrvu", errno=2, rc=VERR_VM_DRIVER_NOT_INSTALLED
00:03:12.969020 nspr-3   WARNING [COM]: aRC=NS_ERROR_FAILURE (0x80004005) aIID={16ced992-5fdc-4aba-aff5-6a39bbd7c38b} aComponent={HostWrap} aText={VirtualBox is not currently allowed to access USB devices.  You can change this by adding your user to the 'vboxusers' group.  Please see the user manual for a more detailed explanation}, preserve=true  aResultDetail=0
00:03:12.969724 nspr-3   WARNING [COM]: aRC=NS_ERROR_FAILURE (0x80004005) aIID={16ced992-5fdc-4aba-aff5-6a39bbd7c38b} aComponent={HostWrap} aText={VirtualBox is not currently allowed to access USB devices.  You can change this by adding your user to the 'vboxusers' group.  Please see the user manual for a more detailed explanation}, preserve=true  aResultDetail=0
00:03:15.720204 nspr-2   Launched VM: 3355447968 pid: 4064 (0xfe0) frontend: GUI/Qt name: ALCI TEST
00:03:15.772667 nspr-2   Failed to open "/dev/vboxdrvu", errno=2, rc=VERR_VM_DRIVER_NOT_INSTALLED
00:03:15.794544 nspr-2   WARNING [COM]: aRC=NS_ERROR_FAILURE (0x80004005) aIID={16ced992-5fdc-4aba-aff5-6a39bbd7c38b} aComponent={HostWrap} aText={VirtualBox is not currently allowed to access USB devices.  You can change this by adding your user to the 'vboxusers' group.  Please see the user manual for a more detailed explanation}, preserve=true  aResultDetail=0
00:03:15.795182 nspr-2   WARNING [COM]: aRC=NS_ERROR_FAILURE (0x80004005) aIID={16ced992-5fdc-4aba-aff5-6a39bbd7c38b} aComponent={HostWrap} aText={VirtualBox is not currently allowed to access USB devices.  You can change this by adding your user to the 'vboxusers' group.  Please see the user manual for a more detailed explanation}, preserve=true  aResultDetail=0
00:03:16.221240 Watcher  ERROR [COM]: aRC=NS_ERROR_FAILURE (0x80004005) aIID={85632c68-b5bb-4316-a900-5eb28d3413df} aComponent={MachineWrap} aText={The virtual machine 'ALCI TEST' has terminated unexpectedly during startup with exit code 1 (0x1)}, preserve=false aResultDetail=0
00:03:16.776875 nspr-3   Failed to open "/dev/vboxdrvu", errno=2, rc=VERR_VM_DRIVER_NOT_INSTALLED
00:03:16.883025 nspr-2   WARNING [COM]: aRC=NS_ERROR_FAILURE (0x80004005) aIID={16ced992-5fdc-4aba-aff5-6a39bbd7c38b} aComponent={HostWrap} aText={VirtualBox is not currently allowed to access USB devices.  You can change this by adding your user to the 'vboxusers' group.  Please see the user manual for a more detailed explanation}, preserve=true  aResultDetail=0
00:03:16.883899 nspr-2   WARNING [COM]: aRC=NS_ERROR_FAILURE (0x80004005) aIID={16ced992-5fdc-4aba-aff5-6a39bbd7c38b} aComponent={HostWrap} aText={VirtualBox is not currently allowed to access USB devices.  You can change this by adding your user to the 'vboxusers' group.  Please see the user manual for a more detailed explanation}, preserve=true  aResultDetail=0
00:03:28.440426 nspr-2   Saving settings file "/home/willyb/.config/VirtualBox/VirtualBox.xml" with version "1.12-linux"
00:03:28.455228 nspr-4   Saving settings file "/home/willyb/.config/VirtualBox/VirtualBox.xml" with version "1.12-linux"
00:03:33.981807 main     VirtualBox: object deletion starts
00:03:33.981881 main     ERROR [COM]: aRC=VBOX_E_OBJECT_IN_USE (0x80bb000c) aIID={ad47ad09-787b-44ab-b343-a082a3f2dfb1} aComponent={MediumWrap} aText={Medium '/home/willyb/VirtualBox VMs/ALCI TEST/ALCI TEST.vdi' cannot be closed because it is still attached to 1 virtual machines}, preserve=false aResultDetail=0
00:03:33.982659 main     HostDnsMonitor: shutting down ...
00:03:33.995731 main     HostDnsMonitor: shut down
00:03:34.228859 Watcher  ERROR [COM]: aRC=E_ACCESSDENIED (0x80070005) aIID={d0a0163f-e254-4e5b-a1f2-011cf991c38d} aComponent={VirtualBoxWrap} aText={The object is not ready}, preserve=false aResultDetail=0
00:03:38.995990 main     {00007f1fcc017560} HostPowerServiceLinux::~HostPowerServiceLinux: RTThreadWait() for 5000 ms failed with VERR_TIMEOUT
00:03:38.996545 main     VirtualBox: object deleted
